Uuid,Void/Retire,Entity name,Name,Description,Min occurs,Max occurs,Datatype classname,Datatype config,Preferred handler classname,Handler config
67FF6F45-66C3-467E-B299-FD14BC6E8A76,,Visit,Case Id,Case Id,0,1,org.openmrs.customdatatype.datatype.FreeTextDatatype,,,
2eed3db4-d910-4316-8498-e7e1bde4b119,,Visit,Patient Type,Patient Type Visit Attribute,0,,org.openmrs.customdatatype.datatype.FreeTextDatatype,,,
95945c54-4d21-4973-abd6-a81f31ad3f6d,,Location,Lab Old Code,Lab Old Code,0,1,org.openmrs.customdatatype.datatype.FreeTextDatatype,,,
af7af723-e620-4d45-b170-39e13dd9b8e0,,Location,Lab Mnemonic,Lab Mnemonic,0,1,org.openmrs.customdatatype.datatype.FreeTextDatatype,,,